shortname QindexAll QindexWorstHand WorstHandID
P2000013 0.013177 0.014005 -1
P2000014 0.018888 0.020199 1
P2000015 0.020450 0.023871 -1
P2000016 0.016480 0.016988 -1
P2000019 0.013216 0.016390 -1
P2000021 0.016455 0.017095 1
P3000019 0.032376 0.050146 1
P6000001 0.016180 0.017906 -1
P6000002 0.027666 0.027897 1
P6000003 0.018899 0.026818 -1
P6000004 0.032206 0.037815 1
P6000005 0.015010 0.016853 1
P6000006 0.013676 0.016428 1
P6000007 0.016734 0.020352 1
P6000008 0.030747 0.036685 1
P800001 0.025538 0.032050 -1
P800002 0.017252 0.018676 1
P800004 0.015010 0.016853 1
P800005 0.013676 0.016428 1
P800006 0.016734 0.020352 1
