clear all;
clc;
global thetaSum;
thetaSum=0;
index = 'Theta'; % not a good feature
sampling = 'low'; %i.e. 60Hz
batch_new('OH','ALL',index,sampling)

j =

     1


j =

     2


ans =

P2000013


Qindex =

    0.0010


thetaSum =

    0.0010


j =

     3


Qindex =

    0.0221


thetaSum =

    0.0231


j =

     4


Qindex =

    0.0211


thetaSum =

    0.0442


j =

     5


Qindex =

    0.0391


thetaSum =

    0.0833


j =

     6


Qindex =

    0.0181


thetaSum =

    0.1014


j =

     7


Qindex =

    0.0010


thetaSum =

    0.1024


j =

     8


Qindex =

    0.0120


thetaSum =

    0.1145


j =

     9


Qindex =

    0.0151


thetaSum =

    0.1295


j =

    10


Qindex =

    0.0131


thetaSum =

    0.1426


j =

    11


Qindex =

    0.0110


thetaSum =

    0.1536


j =

    12


Qindex =

    0.0212


thetaSum =

    0.1748


j =

    13


Qindex =

    0.0302


thetaSum =

    0.2050


j =

    14


Qindex =

    0.0374


thetaSum =

    0.2423


j =

    15


Qindex =

    0.0212


thetaSum =

    0.2635


j =

    16


Qindex =

    0.0282


thetaSum =

    0.2917


j =

    17


Qindex =

    0.0010


thetaSum =

    0.2927


j =

    18


Qindex =

    0.0141


thetaSum =

    0.3068


j =

    19


Qindex =

    0.0080


thetaSum =

    0.3148


j =

    20


Qindex =

    0.0161


thetaSum =

    0.3310


j =

    21


Qindex =

    0.0050


thetaSum =

    0.3360


j =

    22


Qindex =

    0.0151


thetaSum =

    0.3511


j =

    23


Qindex =

    0.0111


thetaSum =

    0.3621


j =

    24


Qindex =

    0.0030


thetaSum =

    0.3652


j =

    25


Qindex =

    0.0060


thetaSum =

    0.3712


j =

    26


Qindex =

    0.0071


thetaSum =

    0.3783


j =

    27


Qindex =

    0.0131


thetaSum =

    0.3914


j =

    28


Qindex =

    0.0010


thetaSum =

    0.3924


j =

    29


Qindex =

    0.0020


thetaSum =

    0.3944


j =

    30


Qindex =

    0.0252


thetaSum =

    0.4195


j =

    31


Qindex =

    0.0100


thetaSum =

    0.4296


j =

    32


Qindex =

    0.0292


thetaSum =

    0.4587


j =

    33


Qindex =

    0.0080


thetaSum =

    0.4668


j =

    34


Qindex =

    0.0070


thetaSum =

    0.4738


j =

    35


Qindex =

    0.0020


thetaSum =

    0.4758


j =

    36


Qindex =

    0.0091


thetaSum =

    0.4849


j =

    37


Qindex =

    0.0040


thetaSum =

    0.4889


j =

    38


Qindex =

    0.0040


thetaSum =

    0.4929


j =

    39


Qindex =

    0.0131


thetaSum =

    0.5060


j =

    40


Qindex =

    0.0151


thetaSum =

    0.5211


j =

    41


Qindex =

    0.0071


thetaSum =

    0.5281


j =

    42


Qindex =

    0.0121


thetaSum =

    0.5402


j =

    43


ans =

P2000014


Qindex =

    0.0291


thetaSum =

    0.5694


j =

    44


Qindex =

    0.0080


thetaSum =

    0.5774


j =

    45


Qindex =

    0.0040


thetaSum =

    0.5814


j =

    46


Qindex =

    0.0120


thetaSum =

    0.5935


j =

    47


Qindex =

    0.0312


thetaSum =

    0.6247


j =

    48


Qindex =

    0.0161


thetaSum =

    0.6407


j =

    49


Qindex =

    0.0150


thetaSum =

    0.6558


j =

    50


Qindex =

    0.0050


thetaSum =

    0.6608


j =

    51


Qindex =

    0.0010


thetaSum =

    0.6618


j =

    52


Qindex =

    0.0050


thetaSum =

    0.6668


j =

    53


Qindex =

    0.0131


thetaSum =

    0.6799


j =

    54


Qindex =

    0.0111


thetaSum =

    0.6910


j =

    55


Qindex =

    0.0231


thetaSum =

    0.7141


j =

    56


Qindex =

    0.0992


thetaSum =

    0.8132


j =

    57


Qindex =

    0.0411


thetaSum =

    0.8543


j =

    58


Qindex =

    0.0242


thetaSum =

    0.8785


j =

    59


Qindex =

    0.0131


thetaSum =

    0.8915


j =

    60


Qindex =

    0.0191


thetaSum =

    0.9106


j =

    61


Qindex =

    0.0241


thetaSum =

    0.9347


j =

    62


Qindex =

    0.0201


thetaSum =

    0.9548


j =

    63


Qindex =

    0.0161


thetaSum =

    0.9709


j =

    64


Qindex =

    0.0382


thetaSum =

    1.0091


j =

    65


Qindex =

    0.0281


thetaSum =

    1.0373


j =

    66


Qindex =

    0.0311


thetaSum =

    1.0684


j =

    67


Qindex =

    0.0241


thetaSum =

    1.0925


j =

    68


Qindex =

    0.0141


thetaSum =

    1.1066


j =

    69


Qindex =

    0.0231


thetaSum =

    1.1297


j =

    70


Qindex =

    0.0321


thetaSum =

    1.1618


j =

    71


Qindex =

    0.0382


thetaSum =

    1.2000


j =

    72


Qindex =

    0.0261


thetaSum =

    1.2261


j =

    73


Qindex =

    0.0222


thetaSum =

    1.2483


j =

    74


Qindex =

    0.0081


thetaSum =

    1.2563


j =

    75


Qindex =

    0.0050


thetaSum =

    1.2613


j =

    76


Qindex =

    0.0060


thetaSum =

    1.2674


j =

    77


Qindex =

    0.0171


thetaSum =

    1.2845


j =

    78


Qindex =

    0.0050


thetaSum =

    1.2895


j =

    79


Qindex =

    0.0030


thetaSum =

    1.2925


j =

    80


Qindex =

    0.0050


thetaSum =

    1.2975


j =

    81


Qindex =

    0.0040


thetaSum =

    1.3016


j =

    82


Qindex =

    0.0060


thetaSum =

    1.3076


j =

    83


Qindex =

    0.0070


thetaSum =

    1.3146


j =

    84


ans =

P2000015


Qindex =

    0.0080


thetaSum =

    1.3227


j =

    85


Qindex =

    0.0301


thetaSum =

    1.3528


j =

    86


Qindex =

    0.0403


thetaSum =

    1.3931


j =

    87


Qindex =

    0.0151


thetaSum =

    1.4082


j =

    88


Qindex =

    0.0070


thetaSum =

    1.4152


j =

    89


Qindex =

    0.0050


thetaSum =

    1.4202


j =

    90


Qindex =

    0.0010


thetaSum =

    1.4213


j =

    91


Qindex =

    0.0141


thetaSum =

    1.4354


j =

    92


Qindex =

    0.0311


thetaSum =

    1.4665


j =

    93


Qindex =

    0.0311


thetaSum =

    1.4976


j =

    94


Qindex =

    0.0101


thetaSum =

    1.5077


j =

    95


Qindex =

    0.0060


thetaSum =

    1.5137


j =

    96


Qindex =

    0.0260


thetaSum =

    1.5398


j =

    97


Qindex =

    0.0181


thetaSum =

    1.5579


j =

    98


Qindex =

    0.0060


thetaSum =

    1.5639


j =

    99


Qindex =

    0.0181


thetaSum =

    1.5820


j =

   100


Qindex =

    0.0403


thetaSum =

    1.6223


j =

   101


Qindex =

    0.0231


thetaSum =

    1.6454


j =

   102


Qindex =

    0.0709


thetaSum =

    1.7162


j =

   103


Qindex =

    0.0352


thetaSum =

    1.7514


j =

   104


Qindex =

    0.0181


thetaSum =

    1.7695


j =

   105


Qindex =

    0.0120


thetaSum =

    1.7816


j =

   106


Qindex =

    0.0131


thetaSum =

    1.7946


j =

   107


Qindex =

    0.0152


thetaSum =

    1.8098


j =

   108


Qindex =

    0.0262


thetaSum =

    1.8359


j =

   109


Qindex =

    0.0322


thetaSum =

    1.8681


j =

   110


Qindex =

    0.0120


thetaSum =

    1.8802


j =

   111


Qindex =

    0.0010


thetaSum =

    1.8812


j =

   112


Qindex =

    0.0040


thetaSum =

    1.8852


j =

   113


Qindex =

    0.0251


thetaSum =

    1.9103


j =

   114


Qindex =

    0.0292


thetaSum =

    1.9395


j =

   115


Qindex =

    0.0121


thetaSum =

    1.9515


j =

   116


Qindex =

    0.0202


thetaSum =

    1.9718


j =

   117


Qindex =

    0.0309


thetaSum =

    2.0027


j =

   118


Qindex =

    0.0412


thetaSum =

    2.0439


j =

   119


Qindex =

    0.0050


thetaSum =

    2.0489


j =

   120


Qindex =

    0.0101


thetaSum =

    2.0590


j =

   121


Qindex =

    0.0262


thetaSum =

    2.0852


j =

   122


Qindex =

    0.0233


thetaSum =

    2.1085


j =

   123


Qindex =

    0.0242


thetaSum =

    2.1326


j =

   124


ans =

P2000016


Qindex =

    0.0081


thetaSum =

    2.1407


j =

   125


Qindex =

    0.0101


thetaSum =

    2.1508


j =

   126


Qindex =

    0.0120


thetaSum =

    2.1628


j =

   127


Qindex =

    0.0091


thetaSum =

    2.1719


j =

   128


Qindex =

    0.0091


thetaSum =

    2.1810


j =

   129


Qindex =

    0.0050


thetaSum =

    2.1860


j =

   130


Qindex =

    0.0271


thetaSum =

    2.2131


j =

   131


Qindex =

    0.0141


thetaSum =

    2.2272


j =

   132


Qindex =

    0.0100


thetaSum =

    2.2372


j =

   133


Qindex =

    0.0091


thetaSum =

    2.2463


j =

   134


Qindex =

    0.0020


thetaSum =

    2.2483


j =

   135


Qindex =

    0.0060


thetaSum =

    2.2543


j =

   136


Qindex =

    0.0040


thetaSum =

    2.2583


j =

   137


Qindex =

    0.0242


thetaSum =

    2.2825


j =

   138


Qindex =

    0.0191


thetaSum =

    2.3015


j =

   139


Qindex =

    0.0020


thetaSum =

    2.3035


j =

   140


Qindex =

    0.0060


thetaSum =

    2.3096


j =

   141


Qindex =

    0.0030


thetaSum =

    2.3126


j =

   142


Qindex =

    0.0070


thetaSum =

    2.3196


j =

   143


Qindex =

    0.0221


thetaSum =

    2.3418


j =

   144


Qindex =

    0.0111


thetaSum =

    2.3529


j =

   145


Qindex =

    0.0060


thetaSum =

    2.3589


j =

   146


Qindex =

    0.0140


thetaSum =

    2.3729


j =

   147


Qindex =

    0.0151


thetaSum =

    2.3880


j =

   148


Qindex =

    0.0071


thetaSum =

    2.3950


j =

   149


Qindex =

    0.0440


thetaSum =

    2.4390


j =

   150


Qindex =

    0.0280


thetaSum =

    2.4671


j =

   151


Qindex =

    0.0322


thetaSum =

    2.4993


j =

   152


Qindex =

    0.0302


thetaSum =

    2.5295


j =

   153


Qindex =

    0.0181


thetaSum =

    2.5475


j =

   154


Qindex =

    0.0272


thetaSum =

    2.5747


j =

   155


Qindex =

    0.0232


thetaSum =

    2.5979


j =

   156


Qindex =

    0.0272


thetaSum =

    2.6251


j =

   157


Qindex =

    0.0331


thetaSum =

    2.6582


j =

   158


Qindex =

    0.0181


thetaSum =

    2.6763


j =

   159


Qindex =

    0.0252


thetaSum =

    2.7015


j =

   160


Qindex =

    0.0361


thetaSum =

    2.7376


j =

   161


Qindex =

    0.0081


thetaSum =

    2.7456


j =

   162


Qindex =

    0.0101


thetaSum =

    2.7557


j =

   163


Qindex =

    0.0361


thetaSum =

    2.7918


j =

   164


ans =

P2000019


Qindex =

    0.0240


thetaSum =

    2.8158


j =

   165


Qindex =

    0.0212


thetaSum =

    2.8371


j =

   166


Qindex =

    0.0040


thetaSum =

    2.8411


j =

   167


Qindex =

    0.0030


thetaSum =

    2.8441


j =

   168


Qindex =

    0.0010


thetaSum =

    2.8451


j =

   169


Qindex =

    0.0051


thetaSum =

    2.8502


j =

   170


Qindex =

    0.0142


thetaSum =

    2.8644


j =

   171


Qindex =

    0.0142


thetaSum =

    2.8785


j =

   172


Qindex =

    0.0091


thetaSum =

    2.8876


j =

   173


Qindex =

    0.0111


thetaSum =

    2.8987


j =

   174


Qindex =

    0.0050


thetaSum =

    2.9037


j =

   175


Qindex =

    0.0191


thetaSum =

    2.9228


j =

   176


Qindex =

    0.0101


thetaSum =

    2.9329


j =

   177


Qindex =

    0.0272


thetaSum =

    2.9601


j =

   178


Qindex =

    0.0091


thetaSum =

    2.9692


j =

   179


Qindex =

    0.0160


thetaSum =

    2.9852


j =

   180


Qindex =

    0.0391


thetaSum =

    3.0243


j =

   181


Qindex =

    0.0201


thetaSum =

    3.0443


j =

   182


Qindex =

    0.0101


thetaSum =

    3.0544


j =

   183


Qindex =

    0.0061


thetaSum =

    3.0605


j =

   184


Qindex =

    0.0060


thetaSum =

    3.0665


j =

   185


Qindex =

    0.0030


thetaSum =

    3.0695


j =

   186


Qindex =

    0.0070


thetaSum =

    3.0766


j =

   187


Qindex =

    0.0191


thetaSum =

    3.0956


j =

   188


Qindex =

    0.0051


thetaSum =

    3.1007


j =

   189


Qindex =

    0.0120


thetaSum =

    3.1127


j =

   190


Qindex =

    0.0151


thetaSum =

    3.1278


j =

   191


Qindex =

    0.0151


thetaSum =

    3.1429


j =

   192


Qindex =

    0.0212


thetaSum =

    3.1641


j =

   193


Qindex =

    0.0071


thetaSum =

    3.1712


j =

   194


Qindex =

    0.0050


thetaSum =

    3.1763


j =

   195


Qindex =

    0.0030


thetaSum =

    3.1793


j =

   196


Qindex =

    0.0050


thetaSum =

    3.1843


j =

   197


Qindex =

    0.0151


thetaSum =

    3.1994


j =

   198


Qindex =

    0.0120


thetaSum =

    3.2114


j =

   199


Qindex =

    0.0010


thetaSum =

    3.2124


j =

   200


Qindex =

    0.0090


thetaSum =

    3.2215


j =

   201


Qindex =

    0.0060


thetaSum =

    3.2275


j =

   202


Qindex =

    0.0090


thetaSum =

    3.2365


j =

   203


Qindex =

    0.0251


thetaSum =

    3.2617


j =

   204


Qindex =

    0.0322


thetaSum =

    3.2939


j =

   205


Qindex =

    0.0372


thetaSum =

    3.3311


j =

   206


Qindex =

    0.0290


thetaSum =

    3.3601


j =

   207


ans =

P2000021


Qindex =

    0.0191


thetaSum =

    3.3792


j =

   208


Qindex =

    0.0040


thetaSum =

    3.3832


j =

   209


Qindex =

    0.0402


thetaSum =

    3.4235


j =

   210


Qindex =

    0.0323


thetaSum =

    3.4557


j =

   211


Qindex =

    0.0393


thetaSum =

    3.4950


j =

   212


Qindex =

    0.0141


thetaSum =

    3.5091


j =

   213


Qindex =

    0.0301


thetaSum =

    3.5392


j =

   214


Qindex =

    0.0241


thetaSum =

    3.5633


j =

   215


Qindex =

    0.0221


thetaSum =

    3.5854


j =

   216


Qindex =

    0.0311


thetaSum =

    3.6165


j =

   217


Qindex =

    0.0050


thetaSum =

    3.6215


j =

   218


Qindex =

    0.0080


thetaSum =

    3.6296


j =

   219


Qindex =

    0.0130


thetaSum =

    3.6426


j =

   220


Qindex =

    0.0010


thetaSum =

    3.6436


j =

   221


Qindex =

    0.0091


thetaSum =

    3.6528


j =

   222


Qindex =

    0.0200


thetaSum =

    3.6728


j =

   223


Qindex =

    0.0100


thetaSum =

    3.6828


j =

   224


Qindex =

    0.0080


thetaSum =

    3.6909


j =

   225


Qindex =

    0.0030


thetaSum =

    3.6939


j =

   226


Qindex =

    0.0221


thetaSum =

    3.7159


j =

   227


Qindex =

    0.0030


thetaSum =

    3.7190


j =

   228


Qindex =

    0.0140


thetaSum =

    3.7330


j =

   229


Qindex =

    0.0121


thetaSum =

    3.7451


j =

   230


Qindex =

    0.0070


thetaSum =

    3.7521


j =

   231


Qindex =

    0.0091


thetaSum =

    3.7612


j =

   232


Qindex =

    0.0101


thetaSum =

    3.7713


j =

   233


Qindex =

    0.0091


thetaSum =

    3.7804


j =

   234


Qindex =

    0.0110


thetaSum =

    3.7914


j =

   235


Qindex =

    0.0040


thetaSum =

    3.7954


j =

   236


Qindex =

    0.0060


thetaSum =

    3.8014


j =

   237


Qindex =

    0.0192


thetaSum =

    3.8206


j =

   238


Qindex =

    0.0172


thetaSum =

    3.8377


j =

   239


Qindex =

    0.0341


thetaSum =

    3.8718


j =

   240


Qindex =

    0.0251


thetaSum =

    3.8969


j =

   241


Qindex =

    0.0141


thetaSum =

    3.9109


j =

   242


Qindex =

    0.0210


thetaSum =

    3.9320


j =

   243


Qindex =

    0.0250


thetaSum =

    3.9570


j =

   244


Qindex =

    0.0211


thetaSum =

    3.9781


j =

   245


Qindex =

    0.0242


thetaSum =

    4.0023


j =

   246


Qindex =

    0.0160


thetaSum =

    4.0183


j =

   247


ans =

P3000019


Qindex =

    0.0374


thetaSum =

    4.0557


j =

   248


Qindex =

    0.0112


thetaSum =

    4.0668


j =

   249


Qindex =

    0.0151


thetaSum =

    4.0820


j =

   250


Qindex =

    0.0192


thetaSum =

    4.1011


j =

   251


Qindex =

    0.0245


thetaSum =

    4.1256


j =

   252


Qindex =

    0.0010


thetaSum =

    4.1266


j =

   253


Qindex =

    0.0355


thetaSum =

    4.1621


j =

   254


Qindex =

    0.6281


thetaSum =

    4.7902


j =

   255


Qindex =

    0.0152


thetaSum =

    4.8054


j =

   256


Qindex =

    0.0162


thetaSum =

    4.8216


j =

   257


Qindex =

    0.0061


thetaSum =

    4.8277


j =

   258


Qindex =

    0.0030


thetaSum =

    4.8307


j =

   259


Qindex =

    0.0213


thetaSum =

    4.8520


j =

   260


Qindex =

    0.0051


thetaSum =

    4.8571


j =

   261


Qindex =

    0.0010


thetaSum =

    4.8581


j =

   262


Qindex =

    0.0183


thetaSum =

    4.8764


j =

   263


Qindex =

    0.0091


thetaSum =

    4.8855


j =

   264


Qindex =

    0.0181


thetaSum =

    4.9037


j =

   265


Qindex =

     0


thetaSum =

    4.9037


j =

   266


Qindex =

    0.0020


thetaSum =

    4.9057


j =

   267


Qindex =

    0.0365


thetaSum =

    4.9422


j =

   268


Qindex =

    0.0051


thetaSum =

    4.9473


j =

   269


Qindex =

    0.0163


thetaSum =

    4.9636


j =

   270


Qindex =

    0.0344


thetaSum =

    4.9979


j =

   271


Qindex =

    0.0263


thetaSum =

    5.0242


j =

   272


Qindex =

    0.0233


thetaSum =

    5.0475


j =

   273


Qindex =

    0.0203


thetaSum =

    5.0678


j =

   274


Qindex =

    0.0101


thetaSum =

    5.0780


j =

   275


Qindex =

    0.0101


thetaSum =

    5.0881


j =

   276


Qindex =

    0.0213


thetaSum =

    5.1094


j =

   277


Qindex =

    0.0051


thetaSum =

    5.1144


j =

   278


Qindex =

    0.0324


thetaSum =

    5.1469


j =

   279


Qindex =

    0.0324


thetaSum =

    5.1793


j =

   280


Qindex =

    0.0511


thetaSum =

    5.2304


j =

   281


Qindex =

    0.0212


thetaSum =

    5.2516


j =

   282


Qindex =

     0


thetaSum =

    5.2516


j =

   283


Qindex =

    0.0173


thetaSum =

    5.2688


j =

   284


Qindex =

    0.0242


thetaSum =

    5.2930


j =

   285


Qindex =

    0.0193


thetaSum =

    5.3123


j =

   286


Qindex =

    0.0010


thetaSum =

    5.3134


j =

   287


ans =

P6000001


Qindex =

    0.0063


thetaSum =

    5.3196


j =

   288


Qindex =

    0.0094


thetaSum =

    5.3291


j =

   289


Qindex =

    0.0241


thetaSum =

    5.3531


j =

   290


Qindex =

    0.0342


thetaSum =

    5.3873


j =

   291


Qindex =

     0


thetaSum =

    5.3873


j =

   292


Qindex =

    0.0010


thetaSum =

    5.3883


j =

   293


Qindex =

    0.0106


thetaSum =

    5.3989


j =

   294


Qindex =

    0.0062


thetaSum =

    5.4051


j =

   295


Qindex =

    0.0093


thetaSum =

    5.4145


j =

   296


Qindex =

    0.0082


thetaSum =

    5.4226


j =

   297


Qindex =

    0.0175


thetaSum =

    5.4402


j =

   298


Qindex =

    0.0506


thetaSum =

    5.4908


j =

   299


Qindex =

    0.0154


thetaSum =

    5.5063


j =

   300


Qindex =

    0.0197


thetaSum =

    5.5259


j =

   301


Qindex =

    0.0200


thetaSum =

    5.5459


j =

   302


Qindex =

    0.0031


thetaSum =

    5.5490


j =

   303


Qindex =

    0.0041


thetaSum =

    5.5531


j =

   304


Qindex =

    0.0362


thetaSum =

    5.5893


j =

   305


Qindex =

    0.0042


thetaSum =

    5.5935


j =

   306


Qindex =

    0.0124


thetaSum =

    5.6059


j =

   307


Qindex =

    0.0104


thetaSum =

    5.6163


j =

   308


Qindex =

    0.0176


thetaSum =

    5.6339


j =

   309


Qindex =

    0.0072


thetaSum =

    5.6411


j =

   310


Qindex =

    0.0041


thetaSum =

    5.6452


j =

   311


Qindex =

    0.0031


thetaSum =

    5.6483


j =

   312


Qindex =

    0.0177


thetaSum =

    5.6661


j =

   313


Qindex =

    0.0084


thetaSum =

    5.6745


j =

   314


Qindex =

    0.0010


thetaSum =

    5.6755


j =

   315


Qindex =

    0.0207


thetaSum =

    5.6962


j =

   316


Qindex =

    0.0523


thetaSum =

    5.7485


j =

   317


Qindex =

    0.0167


thetaSum =

    5.7651


j =

   318


Qindex =

    0.0257


thetaSum =

    5.7908


j =

   319


Qindex =

    0.0021


thetaSum =

    5.7929


j =

   320


Qindex =

    0.0247


thetaSum =

    5.8176


j =

   321


Qindex =

    0.0578


thetaSum =

    5.8755


j =

   322


Qindex =

    0.0176


thetaSum =

    5.8931


j =

   323


Qindex =

    0.0258


thetaSum =

    5.9189


j =

   324


Qindex =

    0.0093


thetaSum =

    5.9282


j =

   325


ans =

P6000002


Qindex =

    0.0341


thetaSum =

    5.9624


j =

   326


Qindex =

    0.0292


thetaSum =

    5.9916


j =

   327


Qindex =

    0.0319


thetaSum =

    6.0235


j =

   328


Qindex =

    0.0364


thetaSum =

    6.0599


j =

   329


Qindex =

    0.0313


thetaSum =

    6.0912


j =

   330


Qindex =

    0.0464


thetaSum =

    6.1376


j =

   331


Qindex =

    0.0391


thetaSum =

    6.1768


j =

   332


Qindex =

    0.0304


thetaSum =

    6.2071


j =

   333


Qindex =

    0.0170


thetaSum =

    6.2241


j =

   334


Qindex =

    0.0455


thetaSum =

    6.2696


j =

   335


Qindex =

    0.0527


thetaSum =

    6.3224


j =

   336


Qindex =

    0.0031


thetaSum =

    6.3255


j =

   337


Qindex =

    0.0021


thetaSum =

    6.3276


j =

   338


Qindex =

    0.0149


thetaSum =

    6.3424


j =

   339


Qindex =

    0.0011


thetaSum =

    6.3435


j =

   340


Qindex =

    0.0294


thetaSum =

    6.3729


j =

   341


Qindex =

    0.0295


thetaSum =

    6.4025


j =

   342


Qindex =

    0.0510


thetaSum =

    6.4534


j =

   343


Qindex =

    0.0227


thetaSum =

    6.4762


j =

   344


Qindex =

    0.0198


thetaSum =

    6.4960


j =

   345


Qindex =

    0.0558


thetaSum =

    6.5518


j =

   346


Qindex =

    0.0201


thetaSum =

    6.5720


j =

   347


Qindex =

    0.0315


thetaSum =

    6.6035


j =

   348


Qindex =

    0.0338


thetaSum =

    6.6373


j =

   349


Qindex =

    0.0518


thetaSum =

    6.6891


j =

   350


Qindex =

    0.0459


thetaSum =

    6.7350


j =

   351


Qindex =

    0.0402


thetaSum =

    6.7753


j =

   352


Qindex =

    0.0021


thetaSum =

    6.7773


j =

   353


Qindex =

    0.0063


thetaSum =

    6.7836


j =

   354


Qindex =

    0.0405


thetaSum =

    6.8241


j =

   355


Qindex =

    0.0113


thetaSum =

    6.8353


j =

   356


Qindex =

    0.0250


thetaSum =

    6.8603


j =

   357


Qindex =

    0.0465


thetaSum =

    6.9068


j =

   358


Qindex =

    0.0031


thetaSum =

    6.9099


j =

   359


Qindex =

    0.0146


thetaSum =

    6.9245


j =

   360


Qindex =

    0.0126


thetaSum =

    6.9372


j =

   361


Qindex =

    0.0147


thetaSum =

    6.9518


j =

   362


ans =

P6000003


Qindex =

    0.0171


thetaSum =

    6.9689


j =

   363


Qindex =

    0.0117


thetaSum =

    6.9807


j =

   364


Qindex =

    0.0083


thetaSum =

    6.9890


j =

   365


Qindex =

    0.0031


thetaSum =

    6.9921


j =

   366


Qindex =

    0.0052


thetaSum =

    6.9973


j =

   367


Qindex =

    0.0063


thetaSum =

    7.0036


j =

   368


Qindex =

    0.0063


thetaSum =

    7.0099


j =

   369


Qindex =

    0.0094


thetaSum =

    7.0193


j =

   370


Qindex =

    0.0053


thetaSum =

    7.0246


j =

   371


Qindex =

    0.0136


thetaSum =

    7.0382


j =

   372


Qindex =

    0.0329


thetaSum =

    7.0711


j =

   373


Qindex =

    0.0063


thetaSum =

    7.0775


j =

   374


Qindex =

    0.0126


thetaSum =

    7.0901


j =

   375


Qindex =

    0.0031


thetaSum =

    7.0932


j =

   376


Qindex =

    0.0115


thetaSum =

    7.1047


j =

   377


Qindex =

    0.0061


thetaSum =

    7.1108


j =

   378


Qindex =

    0.0250


thetaSum =

    7.1358


j =

   379


Qindex =

    0.0042


thetaSum =

    7.1400


j =

   380


Qindex =

    0.0125


thetaSum =

    7.1525


j =

   381


Qindex =

    0.0189


thetaSum =

    7.1715


j =

   382


Qindex =

    0.0386


thetaSum =

    7.2100


j =

   383


Qindex =

    0.0459


thetaSum =

    7.2560


j =

   384


Qindex =

    0.0442


thetaSum =

    7.3002


j =

   385


Qindex =

    0.0586


thetaSum =

    7.3588


j =

   386


Qindex =

    0.0173


thetaSum =

    7.3761


j =

   387


Qindex =

    0.0311


thetaSum =

    7.4072


j =

   388


Qindex =

    0.0210


thetaSum =

    7.4283


j =

   389


Qindex =

    0.0383


thetaSum =

    7.4666


j =

   390


Qindex =

    0.0298


thetaSum =

    7.4964


j =

   391


Qindex =

    0.0021


thetaSum =

    7.4985


j =

   392


Qindex =

    0.0168


thetaSum =

    7.5152


j =

   393


Qindex =

    0.0281


thetaSum =

    7.5434


j =

   394


Qindex =

    0.0104


thetaSum =

    7.5538


j =

   395


Qindex =

    0.0666


thetaSum =

    7.6203


j =

   396


Qindex =

    0.0103


thetaSum =

    7.6307


j =

   397


Qindex =

    0.0082


thetaSum =

    7.6389


j =

   398


Qindex =

    0.0114


thetaSum =

    7.6503


j =

   399


Qindex =

    0.0177


thetaSum =

    7.6680


j =

   400


Qindex =

    0.0355


thetaSum =

    7.7035


j =

   401


Qindex =

    0.0043


thetaSum =

    7.7078


j =

   402


ans =

P6000004


Qindex =

    0.0603


thetaSum =

    7.7681


j =

   403


Qindex =

    0.0235


thetaSum =

    7.7916


j =

   404


Qindex =

    0.0145


thetaSum =

    7.8062


j =

   405


Qindex =

    0.0136


thetaSum =

    7.8198


j =

   406


Qindex =

    0.0239


thetaSum =

    7.8437


j =

   407


Qindex =

    0.0583


thetaSum =

    7.9020


j =

   408


Qindex =

    0.0300


thetaSum =

    7.9319


j =

   409


Qindex =

    0.0541


thetaSum =

    7.9861


j =

   410


Qindex =

    0.0598


thetaSum =

    8.0459


j =

   411


Qindex =

    0.0305


thetaSum =

    8.0764


j =

   412


Qindex =

    0.0244


thetaSum =

    8.1008


j =

   413


Qindex =

    0.1238


thetaSum =

    8.2246


j =

   414


Qindex =

    0.1443


thetaSum =

    8.3690


j =

   415


Qindex =

    0.0143


thetaSum =

    8.3833


j =

   416


Qindex =

    0.0032


thetaSum =

    8.3864


j =

   417


Qindex =

    0.0083


thetaSum =

    8.3948


j =

   418


Qindex =

    0.0093


thetaSum =

    8.4040


j =

   419


Qindex =

    0.0178


thetaSum =

    8.4219


j =

   420


Qindex =

    0.0106


thetaSum =

    8.4325


j =

   421


Qindex =

    0.0316


thetaSum =

    8.4641


j =

   422


Qindex =

    0.0167


thetaSum =

    8.4808


j =

   423


Qindex =

    0.0062


thetaSum =

    8.4870


j =

   424


Qindex =

    0.0149


thetaSum =

    8.5019


j =

   425


Qindex =

    0.0133


thetaSum =

    8.5152


j =

   426


Qindex =

    0.0021


thetaSum =

    8.5172


j =

   427


Qindex =

    0.0261


thetaSum =

    8.5434


j =

   428


Qindex =

    0.0414


thetaSum =

    8.5848


j =

   429


Qindex =

    0.0189


thetaSum =

    8.6037


j =

   430


Qindex =

    0.0279


thetaSum =

    8.6315


j =

   431


Qindex =

    0.0167


thetaSum =

    8.6482


j =

   432


Qindex =

    0.0125


thetaSum =

    8.6607


j =

   433


Qindex =

    0.0894


thetaSum =

    8.7501


j =

   434


Qindex =

    0.0712


thetaSum =

    8.8213


j =

   435


Qindex =

    0.0477


thetaSum =

    8.8690


j =

   436


Qindex =

    0.0294


thetaSum =

    8.8983


j =

   437


Qindex =

    0.0313


thetaSum =

    8.9296


j =

   438


Qindex =

    0.0178


thetaSum =

    8.9475


j =

   439


Qindex =

    0.0021


thetaSum =

    8.9496


j =

   440


Qindex =

    0.0465


thetaSum =

    8.9961


j =

   441


Qindex =

     0


thetaSum =

    8.9961


j =

   442


ans =

P6000005


Qindex =

     0


thetaSum =

    8.9961


j =

   443


Qindex =

    0.0105


thetaSum =

    9.0065


j =

   444


Qindex =

    0.0222


thetaSum =

    9.0287


j =

   445


Qindex =

    0.0237


thetaSum =

    9.0525


j =

   446


Qindex =

     0


thetaSum =

    9.0525


j =

   447


Qindex =

    0.0063


thetaSum =

    9.0587


j =

   448


Qindex =

    0.0259


thetaSum =

    9.0846


j =

   449


Qindex =

    0.0397


thetaSum =

    9.1244


j =

   450


Qindex =

    0.0357


thetaSum =

    9.1601


j =

   451


Qindex =

     0


thetaSum =

    9.1601


j =

   452


Qindex =

    0.0334


thetaSum =

    9.1934


j =

   453


Qindex =

    0.0461


thetaSum =

    9.2395


j =

   454


Qindex =

    0.0243


thetaSum =

    9.2638


j =

   455


Qindex =

    0.0072


thetaSum =

    9.2710


j =

   456


Qindex =

    0.0105


thetaSum =

    9.2815


j =

   457


Qindex =

    0.0158


thetaSum =

    9.2973


j =

   458


Qindex =

    0.0021


thetaSum =

    9.2994


j =

   459


Qindex =

    0.0095


thetaSum =

    9.3089


j =

   460


Qindex =

    0.0073


thetaSum =

    9.3163


j =

   461


Qindex =

    0.0387


thetaSum =

    9.3549


j =

   462


Qindex =

    0.0321


thetaSum =

    9.3871


j =

   463


Qindex =

    0.0186


thetaSum =

    9.4057


j =

   464


Qindex =

    0.0083


thetaSum =

    9.4140


j =

   465


Qindex =

    0.0194


thetaSum =

    9.4334


j =

   466


Qindex =

    0.0052


thetaSum =

    9.4386


j =

   467


Qindex =

    0.0021


thetaSum =

    9.4407


j =

   468


Qindex =

    0.0107


thetaSum =

    9.4514


j =

   469


Qindex =

    0.0125


thetaSum =

    9.4639


j =

   470


Qindex =

    0.0041


thetaSum =

    9.4680


j =

   471


Qindex =

    0.0105


thetaSum =

    9.4785


j =

   472


Qindex =

    0.0159


thetaSum =

    9.4944


j =

   473


Qindex =

    0.0211


thetaSum =

    9.5155


j =

   474


Qindex =

    0.0115


thetaSum =

    9.5270


j =

   475


Qindex =

    0.0010


thetaSum =

    9.5280


j =

   476


Qindex =

    0.0073


thetaSum =

    9.5354


j =

   477


Qindex =

    0.0011


thetaSum =

    9.5364


j =

   478


ans =

P6000006


Qindex =

    0.0020


thetaSum =

    9.5385


j =

   479


Qindex =

    0.0031


thetaSum =

    9.5416


j =

   480


Qindex =

    0.0105


thetaSum =

    9.5521


j =

   481


Qindex =

    0.0226


thetaSum =

    9.5747


j =

   482


Qindex =

    0.0176


thetaSum =

    9.5923


j =

   483


Qindex =

    0.0021


thetaSum =

    9.5943


j =

   484


Qindex =

    0.0125


thetaSum =

    9.6068


j =

   485


Qindex =

    0.0062


thetaSum =

    9.6131


j =

   486


Qindex =

    0.0021


thetaSum =

    9.6152


j =

   487


Qindex =

    0.0021


thetaSum =

    9.6172


j =

   488


Qindex =

    0.0206


thetaSum =

    9.6379


j =

   489


Qindex =

    0.0399


thetaSum =

    9.6778


j =

   490


Qindex =

    0.0242


thetaSum =

    9.7020


j =

   491


Qindex =

    0.0365


thetaSum =

    9.7385


j =

   492


Qindex =

    0.0145


thetaSum =

    9.7530


j =

   493


Qindex =

    0.0178


thetaSum =

    9.7708


j =

   494


Qindex =

    0.0084


thetaSum =

    9.7792


j =

   495


Qindex =

    0.0396


thetaSum =

    9.8187


j =

   496


Qindex =

    0.0298


thetaSum =

    9.8485


j =

   497


Qindex =

    0.0176


thetaSum =

    9.8662


j =

   498


Qindex =

    0.0041


thetaSum =

    9.8703


j =

   499


Qindex =

    0.0238


thetaSum =

    9.8941


j =

   500


Qindex =

    0.0062


thetaSum =

    9.9003


j =

   501


Qindex =

    0.0010


thetaSum =

    9.9013


j =

   502


Qindex =

    0.0103


thetaSum =

    9.9117


j =

   503


Qindex =

    0.0062


thetaSum =

    9.9179


j =

   504


Qindex =

    0.0021


thetaSum =

    9.9200


j =

   505


Qindex =

    0.0114


thetaSum =

    9.9313


j =

   506


Qindex =

    0.0103


thetaSum =

    9.9416


j =

   507


Qindex =

    0.0094


thetaSum =

    9.9510


j =

   508


Qindex =

    0.0124


thetaSum =

    9.9634


j =

   509


Qindex =

    0.0094


thetaSum =

    9.9729


j =

   510


Qindex =

    0.0031


thetaSum =

    9.9760


j =

   511


Qindex =

    0.0135


thetaSum =

    9.9894


j =

   512


Qindex =

    0.0114


thetaSum =

   10.0008


j =

   513


Qindex =

    0.0270


thetaSum =

   10.0278


j =

   514


Qindex =

    0.0114


thetaSum =

   10.0392


j =

   515


Qindex =

    0.0169


thetaSum =

   10.0561


j =

   516


ans =

P6000007


Qindex =

    0.0021


thetaSum =

   10.0582


j =

   517


Qindex =

    0.0313


thetaSum =

   10.0894


j =

   518


Qindex =

    0.0277


thetaSum =

   10.1171


j =

   519


Qindex =

    0.0305


thetaSum =

   10.1477


j =

   520


Qindex =

    0.0145


thetaSum =

   10.1622


j =

   521


Qindex =

    0.0137


thetaSum =

   10.1758


j =

   522


Qindex =

    0.0252


thetaSum =

   10.2010


j =

   523


Qindex =

    0.0041


thetaSum =

   10.2051


j =

   524


Qindex =

    0.0148


thetaSum =

   10.2199


j =

   525


Qindex =

    0.0308


thetaSum =

   10.2508


j =

   526


Qindex =

    0.0356


thetaSum =

   10.2864


j =

   527


Qindex =

    0.0148


thetaSum =

   10.3012


j =

   528


Qindex =

    0.0125


thetaSum =

   10.3137


j =

   529


Qindex =

    0.0613


thetaSum =

   10.3750


j =

   530


Qindex =

    0.0042


thetaSum =

   10.3791


j =

   531


Qindex =

    0.0168


thetaSum =

   10.3959


j =

   532


Qindex =

    0.0125


thetaSum =

   10.4084


j =

   533


Qindex =

    0.0188


thetaSum =

   10.4272


j =

   534


Qindex =

    0.0158


thetaSum =

   10.4430


j =

   535


Qindex =

    0.0201


thetaSum =

   10.4631


j =

   536


Qindex =

    0.0117


thetaSum =

   10.4748


j =

   537


Qindex =

    0.0236


thetaSum =

   10.4984


j =

   538


Qindex =

    0.0206


thetaSum =

   10.5191


j =

   539


Qindex =

    0.0206


thetaSum =

   10.5397


j =

   540


Qindex =

    0.0095


thetaSum =

   10.5492


j =

   541


Qindex =

    0.0280


thetaSum =

   10.5772


j =

   542


Qindex =

    0.0052


thetaSum =

   10.5824


j =

   543


Qindex =

    0.0115


thetaSum =

   10.5939


j =

   544


Qindex =

    0.0010


thetaSum =

   10.5949


j =

   545


Qindex =

    0.0164


thetaSum =

   10.6113


j =

   546


Qindex =

    0.0093


thetaSum =

   10.6206


j =

   547


Qindex =

    0.0053


thetaSum =

   10.6259


j =

   548


Qindex =

    0.0271


thetaSum =

   10.6530


j =

   549


Qindex =

    0.0156


thetaSum =

   10.6686


j =

   550


Qindex =

    0.0010


thetaSum =

   10.6696


j =

   551


Qindex =

    0.0125


thetaSum =

   10.6822


j =

   552


Qindex =

    0.0031


thetaSum =

   10.6853


j =

   553


Qindex =

    0.0042


thetaSum =

   10.6894


j =

   554


Qindex =

    0.0298


thetaSum =

   10.7193


j =

   555


Qindex =

    0.0062


thetaSum =

   10.7255


j =

   556


ans =

P6000008


Qindex =

    0.0144


thetaSum =

   10.7398


j =

   557


Qindex =

    0.0122


thetaSum =

   10.7521


j =

   558


Qindex =

    0.0031


thetaSum =

   10.7552


j =

   559


Qindex =

    0.0041


thetaSum =

   10.7593


j =

   560


Qindex =

    0.0208


thetaSum =

   10.7800


j =

   561


Qindex =

    0.0196


thetaSum =

   10.7996


j =

   562


Qindex =

    0.0246


thetaSum =

   10.8242


j =

   563


Qindex =

    0.0154


thetaSum =

   10.8397


j =

   564


Qindex =

    0.0155


thetaSum =

   10.8552


j =

   565


Qindex =

    0.0113


thetaSum =

   10.8665


j =

   566


Qindex =

    0.0349


thetaSum =

   10.9014


j =

   567


Qindex =

    0.0350


thetaSum =

   10.9364


j =

   568


Qindex =

    0.1580


thetaSum =

   11.0944


j =

   569


Qindex =

    0.0566


thetaSum =

   11.1510


j =

   570


Qindex =

    0.0246


thetaSum =

   11.1756


j =

   571


Qindex =

    0.0647


thetaSum =

   11.2403


j =

   572


Qindex =

    0.0319


thetaSum =

   11.2722


j =

   573


Qindex =

    0.0818


thetaSum =

   11.3540


j =

   574


Qindex =

    0.0432


thetaSum =

   11.3972


j =

   575


Qindex =

    0.0619


thetaSum =

   11.4592


j =

   576


Qindex =

    0.0093


thetaSum =

   11.4684


j =

   577


Qindex =

    0.0236


thetaSum =

   11.4920


j =

   578


Qindex =

    0.0226


thetaSum =

   11.5146


j =

   579


Qindex =

    0.0287


thetaSum =

   11.5433


j =

   580


Qindex =

    0.0564


thetaSum =

   11.5996


j =

   581


Qindex =

    0.0378


thetaSum =

   11.6374


j =

   582


Qindex =

    0.0422


thetaSum =

   11.6796


j =

   583


Qindex =

    0.0051


thetaSum =

   11.6847


j =

   584


Qindex =

    0.0154


thetaSum =

   11.7002


j =

   585


Qindex =

    0.0463


thetaSum =

   11.7465


j =

   586


Qindex =

    0.0379


thetaSum =

   11.7844


j =

   587


Qindex =

    0.0107


thetaSum =

   11.7951


j =

   588


Qindex =

    0.0279


thetaSum =

   11.8230


j =

   589


Qindex =

    0.0031


thetaSum =

   11.8261


j =

   590


Qindex =

    0.0164


thetaSum =

   11.8425


j =

   591


Qindex =

    0.0174


thetaSum =

   11.8599


j =

   592


Qindex =

    0.0327


thetaSum =

   11.8926


j =

   593


Qindex =

    0.0318


thetaSum =

   11.9245


j =

   594


Qindex =

    0.0186


thetaSum =

   11.9431


j =

   595


Qindex =

    0.0123


thetaSum =

   11.9554


j =

   596


ans =

P800001


Qindex =

    0.0195


thetaSum =

   11.9749


j =

   597


Qindex =

    0.0082


thetaSum =

   11.9831


j =

   598


Qindex =

    0.0340


thetaSum =

   12.0171


j =

   599


Qindex =

    0.0155


thetaSum =

   12.0326


j =

   600


Qindex =

    0.0246


thetaSum =

   12.0572


j =

   601


Qindex =

    0.0145


thetaSum =

   12.0717


j =

   602


Qindex =

    0.0072


thetaSum =

   12.0790


j =

   603


Qindex =

    0.0291


thetaSum =

   12.1081


j =

   604


Qindex =

    0.0485


thetaSum =

   12.1566


j =

   605


Qindex =

    0.0361


thetaSum =

   12.1926


j =

   606


Qindex =

    0.0382


thetaSum =

   12.2308


j =

   607


Qindex =

    0.0021


thetaSum =

   12.2329


j =

   608


Qindex =

    0.0145


thetaSum =

   12.2474


j =

   609


Qindex =

    0.0031


thetaSum =

   12.2506


j =

   610


Qindex =

    0.0177


thetaSum =

   12.2683


j =

   611


Qindex =

    0.0010


thetaSum =

   12.2693


j =

   612


Qindex =

    0.0354


thetaSum =

   12.3048


j =

   613


Qindex =

     0


thetaSum =

   12.3048


j =

   614


Qindex =

    0.0021


thetaSum =

   12.3068


j =

   615


Qindex =

    0.0154


thetaSum =

   12.3222


j =

   616


Qindex =

    0.0165


thetaSum =

   12.3387


j =

   617


Qindex =

    0.0215


thetaSum =

   12.3602


j =

   618


Qindex =

    0.0268


thetaSum =

   12.3870


j =

   619


Qindex =

    0.0249


thetaSum =

   12.4120


j =

   620


Qindex =

    0.0290


thetaSum =

   12.4409


j =

   621


Qindex =

    0.0258


thetaSum =

   12.4668


j =

   622


Qindex =

    0.0456


thetaSum =

   12.5123


j =

   623


Qindex =

    0.0506


thetaSum =

   12.5630


j =

   624


Qindex =

    0.0565


thetaSum =

   12.6195


j =

   625


Qindex =

    0.0496


thetaSum =

   12.6691


j =

   626


Qindex =

    0.0526


thetaSum =

   12.7217


j =

   627


Qindex =

    0.0288


thetaSum =

   12.7504


j =

   628


Qindex =

    0.0564


thetaSum =

   12.8068


j =

   629


Qindex =

    0.0441


thetaSum =

   12.8510


j =

   630


Qindex =

    0.0270


thetaSum =

   12.8779


j =

   631


Qindex =

    0.0475


thetaSum =

   12.9254


j =

   632


Qindex =

    0.0186


thetaSum =

   12.9440


j =

   633


Qindex =

    0.0072


thetaSum =

   12.9513


j =

   634


Qindex =

    0.0267


thetaSum =

   12.9780


j =

   635


Qindex =

    0.0051


thetaSum =

   12.9831


j =

   636


Qindex =

    0.0657


thetaSum =

   13.0489


j =

   637


Qindex =

    0.0417


thetaSum =

   13.0906


j =

   638


Qindex =

    0.0021


thetaSum =

   13.0926


j =

   639


Qindex =

    0.0176


thetaSum =

   13.1103


j =

   640


Qindex =

    0.0093


thetaSum =

   13.1195


j =

   641


Qindex =

    0.0061


thetaSum =

   13.1257


j =

   642


Qindex =

    0.0421


thetaSum =

   13.1677


j =

   643


Qindex =

    0.0134


thetaSum =

   13.1812


j =

   644


ans =

P800002


Qindex =

    0.0318


thetaSum =

   13.2130


j =

   645


Qindex =

    0.0327


thetaSum =

   13.2458


j =

   646


Qindex =

    0.0051


thetaSum =

   13.2509


j =

   647


Qindex =

    0.0321


thetaSum =

   13.2830


j =

   648


Qindex =

    0.0124


thetaSum =

   13.2954


j =

   649


Qindex =

    0.0082


thetaSum =

   13.3037


j =

   650


Qindex =

    0.0340


thetaSum =

   13.3377


j =

   651


Qindex =

    0.0197


thetaSum =

   13.3574


j =

   652


Qindex =

    0.0361


thetaSum =

   13.3935


j =

   653


Qindex =

    0.0062


thetaSum =

   13.3997


j =

   654


Qindex =

    0.0041


thetaSum =

   13.4038


j =

   655


Qindex =

    0.0134


thetaSum =

   13.4172


j =

   656


Qindex =

    0.0114


thetaSum =

   13.4286


j =

   657


Qindex =

    0.0288


thetaSum =

   13.4575


j =

   658


Qindex =

    0.0124


thetaSum =

   13.4699


j =

   659


Qindex =

    0.0144


thetaSum =

   13.4843


j =

   660


Qindex =

    0.0227


thetaSum =

   13.5070


j =

   661


Qindex =

    0.0359


thetaSum =

   13.5430


j =

   662


Qindex =

    0.0062


thetaSum =

   13.5492


j =

   663


Qindex =

    0.0082


thetaSum =

   13.5574


j =

   664


Qindex =

    0.0215


thetaSum =

   13.5789


j =

   665


Qindex =

    0.0298


thetaSum =

   13.6087


j =

   666


Qindex =

    0.0176


thetaSum =

   13.6263


j =

   667


Qindex =

    0.0031


thetaSum =

   13.6294


j =

   668


Qindex =

    0.0134


thetaSum =

   13.6428


j =

   669


Qindex =

    0.0041


thetaSum =

   13.6469


j =

   670


Qindex =

    0.0134


thetaSum =

   13.6603


j =

   671


Qindex =

    0.0420


thetaSum =

   13.7023


j =

   672


Qindex =

    0.0041


thetaSum =

   13.7064


j =

   673


Qindex =

    0.0020


thetaSum =

   13.7084


j =

   674


Qindex =

    0.0185


thetaSum =

   13.7270


j =

   675


Qindex =

    0.0197


thetaSum =

   13.7467


j =

   676


Qindex =

    0.0155


thetaSum =

   13.7622


j =

   677


Qindex =

    0.0269


thetaSum =

   13.7891


j =

   678


Qindex =

    0.0185


thetaSum =

   13.8075


j =

   679


Qindex =

    0.0216


thetaSum =

   13.8292


j =

   680


Qindex =

    0.0195


thetaSum =

   13.8486


j =

   681


Qindex =

    0.0226


thetaSum =

   13.8712


j =

   682


Qindex =

    0.0072


thetaSum =

   13.8785


j =

   683


Qindex =

    0.0010


thetaSum =

   13.8795


j =

   684


Qindex =

    0.0031


thetaSum =

   13.8826


j =

   685


Qindex =

    0.0205


thetaSum =

   13.9031


j =

   686


Qindex =

    0.0115


thetaSum =

   13.9146


j =

   687


Qindex =

    0.0082


thetaSum =

   13.9228


j =

   688


Qindex =

    0.0237


thetaSum =

   13.9465


j =

   689


Qindex =

    0.0176


thetaSum =

   13.9641


j =

   690


Qindex =

    0.0154


thetaSum =

   13.9795


j =

   691


Qindex =

    0.0298


thetaSum =

   14.0093


j =

   692


ans =

P800004


Qindex =

     0


thetaSum =

   14.0093


j =

   693


Qindex =

    0.0105


thetaSum =

   14.0198


j =

   694


Qindex =

    0.0222


thetaSum =

   14.0420


j =

   695


Qindex =

    0.0237


thetaSum =

   14.0657


j =

   696


Qindex =

     0


thetaSum =

   14.0657


j =

   697


Qindex =

    0.0063


thetaSum =

   14.0719


j =

   698


Qindex =

    0.0259


thetaSum =

   14.0978


j =

   699


Qindex =

    0.0397


thetaSum =

   14.1376


j =

   700


Qindex =

    0.0357


thetaSum =

   14.1733


j =

   701


Qindex =

     0


thetaSum =

   14.1733


j =

   702


Qindex =

    0.0334


thetaSum =

   14.2066


j =

   703


Qindex =

    0.0461


thetaSum =

   14.2527


j =

   704


Qindex =

    0.0243


thetaSum =

   14.2770


j =

   705


Qindex =

    0.0072


thetaSum =

   14.2843


j =

   706


Qindex =

    0.0105


thetaSum =

   14.2947


j =

   707


Qindex =

    0.0158


thetaSum =

   14.3105


j =

   708


Qindex =

    0.0021


thetaSum =

   14.3126


j =

   709


Qindex =

    0.0095


thetaSum =

   14.3221


j =

   710


Qindex =

    0.0073


thetaSum =

   14.3295


j =

   711


Qindex =

    0.0387


thetaSum =

   14.3682


j =

   712


Qindex =

    0.0321


thetaSum =

   14.4003


j =

   713


Qindex =

    0.0186


thetaSum =

   14.4189


j =

   714


Qindex =

    0.0083


thetaSum =

   14.4272


j =

   715


Qindex =

    0.0194


thetaSum =

   14.4466


j =

   716


Qindex =

    0.0052


thetaSum =

   14.4518


j =

   717


Qindex =

    0.0021


thetaSum =

   14.4539


j =

   718


Qindex =

    0.0107


thetaSum =

   14.4646


j =

   719


Qindex =

    0.0125


thetaSum =

   14.4771


j =

   720


Qindex =

    0.0041


thetaSum =

   14.4812


j =

   721


Qindex =

    0.0105


thetaSum =

   14.4917


j =

   722


Qindex =

    0.0159


thetaSum =

   14.5076


j =

   723


Qindex =

    0.0211


thetaSum =

   14.5287


j =

   724


Qindex =

    0.0115


thetaSum =

   14.5402


j =

   725


Qindex =

    0.0010


thetaSum =

   14.5412


j =

   726


Qindex =

    0.0073


thetaSum =

   14.5486


j =

   727


Qindex =

    0.0011


thetaSum =

   14.5496


j =

   728


ans =

P800005


Qindex =

    0.0020


thetaSum =

   14.5517


j =

   729


Qindex =

    0.0031


thetaSum =

   14.5548


j =

   730


Qindex =

    0.0105


thetaSum =

   14.5653


j =

   731


Qindex =

    0.0226


thetaSum =

   14.5879


j =

   732


Qindex =

    0.0176


thetaSum =

   14.6055


j =

   733


Qindex =

    0.0021


thetaSum =

   14.6076


j =

   734


Qindex =

    0.0125


thetaSum =

   14.6200


j =

   735


Qindex =

    0.0062


thetaSum =

   14.6263


j =

   736


Qindex =

    0.0021


thetaSum =

   14.6284


j =

   737


Qindex =

    0.0021


thetaSum =

   14.6305


j =

   738


Qindex =

    0.0206


thetaSum =

   14.6511


j =

   739


Qindex =

    0.0399


thetaSum =

   14.6910


j =

   740


Qindex =

    0.0242


thetaSum =

   14.7152


j =

   741


Qindex =

    0.0365


thetaSum =

   14.7517


j =

   742


Qindex =

    0.0145


thetaSum =

   14.7662


j =

   743


Qindex =

    0.0178


thetaSum =

   14.7840


j =

   744


Qindex =

    0.0084


thetaSum =

   14.7924


j =

   745


Qindex =

    0.0396


thetaSum =

   14.8320


j =

   746


Qindex =

    0.0298


thetaSum =

   14.8617


j =

   747


Qindex =

    0.0176


thetaSum =

   14.8794


j =

   748


Qindex =

    0.0041


thetaSum =

   14.8835


j =

   749


Qindex =

    0.0238


thetaSum =

   14.9073


j =

   750


Qindex =

    0.0062


thetaSum =

   14.9135


j =

   751


Qindex =

    0.0010


thetaSum =

   14.9146


j =

   752


Qindex =

    0.0103


thetaSum =

   14.9249


j =

   753


Qindex =

    0.0062


thetaSum =

   14.9311


j =

   754


Qindex =

    0.0021


thetaSum =

   14.9332


j =

   755


Qindex =

    0.0114


thetaSum =

   14.9445


j =

   756


Qindex =

    0.0103


thetaSum =

   14.9548


j =

   757


Qindex =

    0.0094


thetaSum =

   14.9642


j =

   758


Qindex =

    0.0124


thetaSum =

   14.9767


j =

   759


Qindex =

    0.0094


thetaSum =

   14.9861


j =

   760


Qindex =

    0.0031


thetaSum =

   14.9892


j =

   761


Qindex =

    0.0135


thetaSum =

   15.0026


j =

   762


Qindex =

    0.0114


thetaSum =

   15.0141


j =

   763


Qindex =

    0.0270


thetaSum =

   15.0410


j =

   764


Qindex =

    0.0114


thetaSum =

   15.0524


j =

   765


Qindex =

    0.0169


thetaSum =

   15.0693


j =

   766


ans =

P800006


Qindex =

    0.0021


thetaSum =

   15.0714


j =

   767


Qindex =

    0.0313


thetaSum =

   15.1026


j =

   768


Qindex =

    0.0277


thetaSum =

   15.1304


j =

   769


Qindex =

    0.0305


thetaSum =

   15.1609


j =

   770


Qindex =

    0.0145


thetaSum =

   15.1754


j =

   771


Qindex =

    0.0137


thetaSum =

   15.1890


j =

   772


Qindex =

    0.0252


thetaSum =

   15.2142


j =

   773


Qindex =

    0.0041


thetaSum =

   15.2184


j =

   774


Qindex =

    0.0148


thetaSum =

   15.2331


j =

   775


Qindex =

    0.0308


thetaSum =

   15.2640


j =

   776


Qindex =

    0.0356


thetaSum =

   15.2996


j =

   777


Qindex =

    0.0148


thetaSum =

   15.3144


j =

   778


Qindex =

    0.0125


thetaSum =

   15.3269


j =

   779


Qindex =

    0.0613


thetaSum =

   15.3882


j =

   780


Qindex =

    0.0042


thetaSum =

   15.3923


j =

   781


Qindex =

    0.0168


thetaSum =

   15.4091


j =

   782


Qindex =

    0.0125


thetaSum =

   15.4216


j =

   783


Qindex =

    0.0188


thetaSum =

   15.4404


j =

   784


Qindex =

    0.0158


thetaSum =

   15.4562


j =

   785


Qindex =

    0.0201


thetaSum =

   15.4763


j =

   786


Qindex =

    0.0117


thetaSum =

   15.4881


j =

   787


Qindex =

    0.0236


thetaSum =

   15.5116


j =

   788


Qindex =

    0.0206


thetaSum =

   15.5323


j =

   789


Qindex =

    0.0206


thetaSum =

   15.5529


j =

   790


Qindex =

    0.0095


thetaSum =

   15.5624


j =

   791


Qindex =

    0.0280


thetaSum =

   15.5904


j =

   792


Qindex =

    0.0052


thetaSum =

   15.5956


j =

   793


Qindex =

    0.0115


thetaSum =

   15.6071


j =

   794


Qindex =

    0.0010


thetaSum =

   15.6081


j =

   795


Qindex =

    0.0164


thetaSum =

   15.6245


j =

   796


Qindex =

    0.0093


thetaSum =

   15.6338


j =

   797


Qindex =

    0.0053


thetaSum =

   15.6391


j =

   798


Qindex =

    0.0271


thetaSum =

   15.6662


j =

   799


Qindex =

    0.0156


thetaSum =

   15.6818


j =

   800


Qindex =

    0.0010


thetaSum =

   15.6828


j =

   801


Qindex =

    0.0125


thetaSum =

   15.6954


j =

   802


Qindex =

    0.0031


thetaSum =

   15.6985


j =

   803


Qindex =

    0.0042


thetaSum =

   15.7026


j =

   804


Qindex =

    0.0298


thetaSum =

   15.7325


j =

   805


Qindex =

    0.0062


thetaSum =

   15.7387

load('/Users/nikmac/Desktop/Thesis/Digitizer_gig/Experiments folder/Main_Code/OHvsPD_deletedComments/ProcessedData/AllData_OH.mat')
load('/Users/nikmac/Desktop/Thesis/Digitizer_gig/Experiments folder/Main_Code/OHvsPD_deletedComments/ProcessedData/OH_All.mat')
data = globA_OH{1, 10};
sum(data)

ans =

   15.7387

load('AllData_PD.mat')
load('Duration_PD.mat')
load('Duration_OH.mat')
diary off;
